…
    dat_t

    # A tibble: 100 x 2
           a        b
       <int>    <dbl>
     1     1  1.28   
     2     2  0.00783
     3     3 -0.0674
     4     4  0.874  
     5     5 -0.798  
     6     6  0.0954
     7     7  0.633  
     8     8 -1.83   
     9     9 -2.11   
    10    10  0.543  
    # ... with 90 more rows
…
