…
    # bind_rowsという関数で縦にくっつける
    data_vpa <- dplyr::bind_rows(data_caa, data_maa, data_waa, .id = "id")

### A2:ここまでやっちゃう？というやり方（一行で！）

最近学んだこと、今後紹介する関数を取り入れてやるとこんな感じに、、、。

    data_vpa <- tibble::lst(caa, waa, maa) %>%
     purrr::map_dfr(. %>% tibble::rownames_to_column(var = "age") %>%
        tidyr::pivot_longer(col = -age, names_to = "year", values_to = "value", names_prefix = "X"),
        .id = "data_type")
    print(data_vpa)

    # A tibble: 360 x 4
       data_type age   year  value
       <chr>     <chr> <chr> <dbl>
     1 caa       0     1988  170.
     2 caa       0     1989  211.
     3 caa       0     1990  204.
     4 caa       0     1991   70.4
     5 caa       0     1992  420.
     6 caa       0     1993  317.
     7 caa       0     1994  108.
     8 caa       0     1995  140.
     9 caa       0     1996  466.
    10 caa       0     1997  750.
    # ... with 350 more rows
…
