…
    dat_t

    # A tibble: 100 x 2
           a       b
       <int>   <dbl>
     1     1 -0.0557
     2     2 -0.0601
     3     3  0.210
     4     4 -2.19  
     5     5 -0.0335
     6     6 -1.28  
     7     7 -0.841
     8     8  1.36  
     9     9 -0.552
    10    10 -1.70  
    # ... with 90 more rows
…
